/home/waniccoll/Projects/springrest-book/Chapter4/final/quick-poll-ch4-final/src/main/java/com/apress/repository/OptionRepository.java
/home/waniccoll/Projects/springrest-book/Chapter4/final/quick-poll-ch4-final/src/main/java/com/apress/controller/VoteController.java
/home/waniccoll/Projects/springrest-book/Chapter4/final/quick-poll-ch4-final/src/main/java/com/apress/domain/Poll.java
/home/waniccoll/Projects/springrest-book/Chapter4/final/quick-poll-ch4-final/src/main/java/com/apress/controller/PollController.java
/home/waniccoll/Projects/springrest-book/Chapter4/final/quick-poll-ch4-final/src/main/java/com/apress/repository/PollRepository.java
/home/waniccoll/Projects/springrest-book/Chapter4/final/quick-poll-ch4-final/src/main/java/com/apress/controller/ComputeResultController.java
/home/waniccoll/Projects/springrest-book/Chapter4/final/quick-poll-ch4-final/src/main/java/com/apress/domain/Vote.java
/home/waniccoll/Projects/springrest-book/Chapter4/final/quick-poll-ch4-final/src/main/java/com/apress/dto/VoteResult.java
/home/waniccoll/Projects/springrest-book/Chapter4/final/quick-poll-ch4-final/src/main/java/com/apress/domain/Option.java
/home/waniccoll/Projects/springrest-book/Chapter4/final/quick-poll-ch4-final/src/main/java/com/apress/dto/OptionCount.java
/home/waniccoll/Projects/springrest-book/Chapter4/final/quick-poll-ch4-final/src/main/java/com/apress/QuickPollApplication.java
/home/waniccoll/Projects/springrest-book/Chapter4/final/quick-poll-ch4-final/src/main/java/com/apress/repository/VoteRepository.java
